%YAML 1.1
%TAG !u! tag:unity3d.com,2011:
--- !u!1 &613672074301058241
GameObject:
  m_ObjectHideFlags: 0
  m_CorrespondingSourceObject: {fileID: 0}
  m_PrefabInstance: {fileID: 0}
  m_PrefabAsset: {fileID: 0}
  serializedVersion: 6
  m_Component:
  - component: {fileID: 613672074301058240}
  - component: {fileID: 613672074301058242}
  - component: {fileID: 613672074301058243}
  m_Layer: 5
  m_Name: Image
  m_TagString: Untagged
  m_Icon: {fileID: 0}
  m_NavMeshLayer: 0
  m_StaticEditorFlags: 0
  m_IsActive: 1
--- !u!224 &613672074301058240
RectTransform:
  m_ObjectHideFlags: 0
  m_CorrespondingSourceObject: {fileID: 0}
  m_PrefabInstance: {fileID: 0}
  m_PrefabAsset: {fileID: 0}
  m_GameObject: {fileID: 613672074301058241}
  m_LocalRotation: {x: 0, y: 0, z: 0, w: 1}
  m_LocalPosition: {x: 0, y: 0, z: 0}
  m_LocalScale: {x: 0.05, y: 0.05, z: 1}
  m_Children: []
  m_Father: {fileID: 613672074301280202}
  m_RootOrder: 0
  m_LocalEulerAnglesHint: {x: 0, y: 0, z: 0}
  m_AnchorMin: {x: 0.5, y: 0.5}
  m_AnchorMax: {x: 0.5, y: 0.5}
  m_AnchoredPosition: {x: 0, y: 0}
  m_SizeDelta: {x: 100, y: 100}
  m_Pivot: {x: 0.5, y: 0.5}
--- !u!222 &613672074301058242
CanvasRenderer:
  m_ObjectHideFlags: 0
  m_CorrespondingSourceObject: {fileID: 0}
  m_PrefabInstance: {fileID: 0}
  m_PrefabAsset: {fileID: 0}
  m_GameObject: {fileID: 613672074301058241}
  m_CullTransparentMesh: 1
--- !u!114 &613672074301058243
MonoBehaviour:
  m_ObjectHideFlags: 0
  m_CorrespondingSourceObject: {fileID: 0}
  m_PrefabInstance: {fileID: 0}
  m_PrefabAsset: {fileID: 0}
  m_GameObject: {fileID: 613672074301058241}
  m_Enabled: 1
  m_EditorHideFlags: 0
  m_Script: {fileID: 11500000, guid: fe87c0e1cc204ed48ad3b37840f39efc, type: 3}
  m_Name: 
  m_EditorClassIdentifier: 
  m_Material: {fileID: 0}
  m_Color: {r: 0, g: 0, b: 0, a: 0.5019608}
  m_RaycastTarget: 1
  m_RaycastPadding: {x: 0, y: 0, z: 0, w: 0}
  m_Maskable: 1
  m_OnCullStateChanged:
    m_PersistentCalls:
      m_Calls: []
  m_Sprite: {fileID: 10913, guid: 0000000000000000f000000000000000, type: 0}
  m_Type: 0
  m_PreserveAspect: 0
  m_FillCenter: 1
  m_FillMethod: 4
  m_FillAmount: 1
  m_FillClockwise: 1
  m_FillOrigin: 0
  m_UseSpriteMesh: 0
  m_PixelsPerUnitMultiplier: 1
--- !u!1 &613672074301280246
GameObject:
  m_ObjectHideFlags: 0
  m_CorrespondingSourceObject: {fileID: 0}
  m_PrefabInstance: {fileID: 0}
  m_PrefabAsset: {fileID: 0}
  serializedVersion: 6
  m_Component:
  - component: {fileID: 613672074301280202}
  - component: {fileID: 613672074301280203}
  - component: {fileID: 613672074301280200}
  - component: {fileID: 613672074301280201}
  m_Layer: 5
  m_Name: Canvas
  m_TagString: Untagged
  m_Icon: {fileID: 0}
  m_NavMeshLayer: 0
  m_StaticEditorFlags: 0
  m_IsActive: 1
--- !u!224 &613672074301280202
RectTransform:
  m_ObjectHideFlags: 0
  m_CorrespondingSourceObject: {fileID: 0}
  m_PrefabInstance: {fileID: 0}
  m_PrefabAsset: {fileID: 0}
  m_GameObject: {fileID: 613672074301280246}
  m_LocalRotation: {x: 0, y: 0, z: 0, w: 1}
  m_LocalPosition: {x: 0, y: 0, z: 0}
  m_LocalScale: {x: 0, y: 0, z: 0}
  m_Children:
  - {fileID: 613672074301058240}
  - {fileID: 613672075085822845}
  - {fileID: 836181501856389771}
  - {fileID: 836181502125888998}
  m_Father: {fileID: 0}
  m_RootOrder: 0
  m_LocalEulerAnglesHint: {x: 0, y: 0, z: 0}
  m_AnchorMin: {x: 0, y: 0}
  m_AnchorMax: {x: 0, y: 0}
  m_AnchoredPosition: {x: 0, y: 0}
  m_SizeDelta: {x: 0, y: 0}
  m_Pivot: {x: 0, y: 0}
--- !u!223 &613672074301280203
Canvas:
  m_ObjectHideFlags: 0
  m_CorrespondingSourceObject: {fileID: 0}
  m_PrefabInstance: {fileID: 0}
  m_PrefabAsset: {fileID: 0}
  m_GameObject: {fileID: 613672074301280246}
  m_Enabled: 1
  serializedVersion: 3
  m_RenderMode: 0
  m_Camera: {fileID: 0}
  m_PlaneDistance: 100
  m_PixelPerfect: 0
  m_ReceivesEvents: 1
  m_OverrideSorting: 0
  m_OverridePixelPerfect: 0
  m_SortingBucketNormalizedSize: 0
  m_AdditionalShaderChannelsFlag: 0
  m_SortingLayerID: 0
  m_SortingOrder: 0
  m_TargetDisplay: 0
--- !u!114 &613672074301280200
MonoBehaviour:
  m_ObjectHideFlags: 0
  m_CorrespondingSourceObject: {fileID: 0}
  m_PrefabInstance: {fileID: 0}
  m_PrefabAsset: {fileID: 0}
  m_GameObject: {fileID: 613672074301280246}
  m_Enabled: 1
  m_EditorHideFlags: 0
  m_Script: {fileID: 11500000, guid: 0cd44c1031e13a943bb63640046fad76, type: 3}
  m_Name: 
  m_EditorClassIdentifier: 
  m_UiScaleMode: 1
  m_ReferencePixelsPerUnit: 100
  m_ScaleFactor: 1
  m_ReferenceResolution: {x: 800, y: 600}
  m_ScreenMatchMode: 1
  m_MatchWidthOrHeight: 0
  m_PhysicalUnit: 3
  m_FallbackScreenDPI: 96
  m_DefaultSpriteDPI: 96
  m_DynamicPixelsPerUnit: 1
  m_PresetInfoIsWorld: 0
--- !u!114 &613672074301280201
MonoBehaviour:
  m_ObjectHideFlags: 0
  m_CorrespondingSourceObject: {fileID: 0}
  m_PrefabInstance: {fileID: 0}
  m_PrefabAsset: {fileID: 0}
  m_GameObject: {fileID: 613672074301280246}
  m_Enabled: 1
  m_EditorHideFlags: 0
  m_Script: {fileID: 11500000, guid: dc42784cf147c0c48a680349fa168899, type: 3}
  m_Name: 
  m_EditorClassIdentifier: 
  m_IgnoreReversedGraphics: 1
  m_BlockingObjects: 0
  m_BlockingMask:
    serializedVersion: 2
    m_Bits: 4294967295
--- !u!1 &613672075085822842
GameObject:
  m_ObjectHideFlags: 0
  m_CorrespondingSourceObject: {fileID: 0}
  m_PrefabInstance: {fileID: 0}
  m_PrefabAsset: {fileID: 0}
  serializedVersion: 6
  m_Component:
  - component: {fileID: 613672075085822845}
  - component: {fileID: 613672075085822847}
  - component: {fileID: 613672075085822844}
  m_Layer: 5
  m_Name: Ammo
  m_TagString: Untagged
  m_Icon: {fileID: 0}
  m_NavMeshLayer: 0
  m_StaticEditorFlags: 0
  m_IsActive: 1
--- !u!224 &613672075085822845
RectTransform:
  m_ObjectHideFlags: 0
  m_CorrespondingSourceObject: {fileID: 0}
  m_PrefabInstance: {fileID: 0}
  m_PrefabAsset: {fileID: 0}
  m_GameObject: {fileID: 613672075085822842}
  m_LocalRotation: {x: 0, y: 0, z: 0, w: 1}
  m_LocalPosition: {x: 0, y: 0, z: 0}
  m_LocalScale: {x: 1, y: 1, z: 1}
  m_Children: []
  m_Father: {fileID: 613672074301280202}
  m_RootOrder: 1
  m_LocalEulerAnglesHint: {x: 0, y: 0, z: 0}
  m_AnchorMin: {x: 0.5, y: 0.5}
  m_AnchorMax: {x: 0.5, y: 0.5}
  m_AnchoredPosition: {x: 0, y: 252.4}
  m_SizeDelta: {x: 160, y: 30}
  m_Pivot: {x: 0.5, y: 0.5}
--- !u!222 &613672075085822847
CanvasRenderer:
  m_ObjectHideFlags: 0
  m_CorrespondingSourceObject: {fileID: 0}
  m_PrefabInstance: {fileID: 0}
  m_PrefabAsset: {fileID: 0}
  m_GameObject: {fileID: 613672075085822842}
  m_CullTransparentMesh: 1
--- !u!114 &613672075085822844
MonoBehaviour:
  m_ObjectHideFlags: 0
  m_CorrespondingSourceObject: {fileID: 0}
  m_PrefabInstance: {fileID: 0}
  m_PrefabAsset: {fileID: 0}
  m_GameObject: {fileID: 613672075085822842}
  m_Enabled: 1
  m_EditorHideFlags: 0
  m_Script: {fileID: 11500000, guid: 5f7201a12d95ffc409449d95f23cf332, type: 3}
  m_Name: 
  m_EditorClassIdentifier: 
  m_Material: {fileID: 0}
  m_Color: {r: 0.19607843, g: 0.19607843, b: 0.19607843, a: 1}
  m_RaycastTarget: 1
  m_RaycastPadding: {x: 0, y: 0, z: 0, w: 0}
  m_Maskable: 1
  m_OnCullStateChanged:
    m_PersistentCalls:
      m_Calls: []
  m_FontData:
    m_Font: {fileID: 10102, guid: 0000000000000000e000000000000000, type: 0}
    m_FontSize: 14
    m_FontStyle: 0
    m_BestFit: 1
    m_MinSize: 10
    m_MaxSize: 40
    m_Alignment: 1
    m_AlignByGeometry: 0
    m_RichText: 1
    m_HorizontalOverflow: 0
    m_VerticalOverflow: 1
    m_LineSpacing: 1
  m_Text: New Text
--- !u!1001 &613672075850291918
PrefabInstance:
  m_ObjectHideFlags: 0
  serializedVersion: 2
  m_Modification:
    m_TransformParent: {fileID: 613672074301280202}
    m_Modifications:
    - target: {fileID: 1825481033360878, guid: 5eefba205a58c8c4a937c97b87c185a3, type: 3}
      propertyPath: m_Name
      value: Shield
      objectReference: {fileID: 0}
    - target: {fileID: 114165064244077878, guid: 5eefba205a58c8c4a937c97b87c185a3, type: 3}
      propertyPath: m_Text
      value: Shield 50%
      objectReference: {fileID: 0}
    - target: {fileID: 114418616620393906, guid: 5eefba205a58c8c4a937c97b87c185a3, type: 3}
      propertyPath: m_Sprite
      value: 
      objectReference: {fileID: 21300002, guid: 1c1f5fdffb8c5a944a978e8debb8fdfe, type: 3}
    - target: {fileID: 114542602933161078, guid: 5eefba205a58c8c4a937c97b87c185a3, type: 3}
      propertyPath: m_Color.b
      value: 0
      objectReference: {fileID: 0}
    - target: {fileID: 114542602933161078, guid: 5eefba205a58c8c4a937c97b87c185a3, type: 3}
      propertyPath: m_Color.g
      value: 0.9176218
      objectReference: {fileID: 0}
    - target: {fileID: 114542602933161078, guid: 5eefba205a58c8c4a937c97b87c185a3, type: 3}
      propertyPath: m_Color.r
      value: 1
      objectReference: {fileID: 0}
    - target: {fileID: 114769781544105922, guid: 5eefba205a58c8c4a937c97b87c185a3, type: 3}
      propertyPath: Title
      value: Shield
      objectReference: {fileID: 0}
    - target: {fileID: 114769781544105922, guid: 5eefba205a58c8c4a937c97b87c185a3, type: 3}
      propertyPath: BarColor.b
      value: 0
      objectReference: {fileID: 0}
    - target: {fileID: 114769781544105922, guid: 5eefba205a58c8c4a937c97b87c185a3, type: 3}
      propertyPath: BarColor.g
      value: 0.9176218
      objectReference: {fileID: 0}
    - target: {fileID: 114769781544105922, guid: 5eefba205a58c8c4a937c97b87c185a3, type: 3}
      propertyPath: BarColor.r
      value: 1
      objectReference: {fileID: 0}
    - target: {fileID: 114769781544105922, guid: 5eefba205a58c8c4a937c97b87c185a3, type: 3}
      propertyPath: TitleFontSize
      value: 40
      objectReference: {fileID: 0}
    - target: {fileID: 114769781544105922, guid: 5eefba205a58c8c4a937c97b87c185a3, type: 3}
      propertyPath: BarBackGroundSprite
      value: 
      objectReference: {fileID: 21300002, guid: 1c1f5fdffb8c5a944a978e8debb8fdfe, type: 3}
    - target: {fileID: 224763426186284840, guid: 5eefba205a58c8c4a937c97b87c185a3, type: 3}
      propertyPath: m_Pivot.x
      value: 0.5
      objectReference: {fileID: 0}
    - target: {fileID: 224763426186284840, guid: 5eefba205a58c8c4a937c97b87c185a3, type: 3}
      propertyPath: m_Pivot.y
      value: 0.5
      objectReference: {fileID: 0}
    - target: {fileID: 224763426186284840, guid: 5eefba205a58c8c4a937c97b87c185a3, type: 3}
      propertyPath: m_RootOrder
      value: 3
      objectReference: {fileID: 0}
    - target: {fileID: 224763426186284840, guid: 5eefba205a58c8c4a937c97b87c185a3, type: 3}
      propertyPath: m_AnchorMax.x
      value: 0.5
      objectReference: {fileID: 0}
    - target: {fileID: 224763426186284840, guid: 5eefba205a58c8c4a937c97b87c185a3, type: 3}
      propertyPath: m_AnchorMax.y
      value: 1
      objectReference: {fileID: 0}
    - target: {fileID: 224763426186284840, guid: 5eefba205a58c8c4a937c97b87c185a3, type: 3}
      propertyPath: m_AnchorMin.x
      value: 0.5
      objectReference: {fileID: 0}
    - target: {fileID: 224763426186284840, guid: 5eefba205a58c8c4a937c97b87c185a3, type: 3}
      propertyPath: m_AnchorMin.y
      value: 1
      objectReference: {fileID: 0}
    - target: {fileID: 224763426186284840, guid: 5eefba205a58c8c4a937c97b87c185a3, type: 3}
      propertyPath: m_SizeDelta.x
      value: 171.76001
      objectReference: {fileID: 0}
    - target: {fileID: 224763426186284840, guid: 5eefba205a58c8c4a937c97b87c185a3, type: 3}
      propertyPath: m_SizeDelta.y
      value: 19.580002
      objectReference: {fileID: 0}
    - target: {fileID: 224763426186284840, guid: 5eefba205a58c8c4a937c97b87c185a3, type: 3}
      propertyPath: m_LocalPosition.x
      value: 0
      objectReference: {fileID: 0}
    - target: {fileID: 224763426186284840, guid: 5eefba205a58c8c4a937c97b87c185a3, type: 3}
      propertyPath: m_LocalPosition.y
      value: 0
      objectReference: {fileID: 0}
    - target: {fileID: 224763426186284840, guid: 5eefba205a58c8c4a937c97b87c185a3, type: 3}
      propertyPath: m_LocalPosition.z
      value: 0
      objectReference: {fileID: 0}
    - target: {fileID: 224763426186284840, guid: 5eefba205a58c8c4a937c97b87c185a3, type: 3}
      propertyPath: m_LocalRotation.w
      value: 1
      objectReference: {fileID: 0}
    - target: {fileID: 224763426186284840, guid: 5eefba205a58c8c4a937c97b87c185a3, type: 3}
      propertyPath: m_LocalRotation.x
      value: -0
      objectReference: {fileID: 0}
    - target: {fileID: 224763426186284840, guid: 5eefba205a58c8c4a937c97b87c185a3, type: 3}
      propertyPath: m_LocalRotation.y
      value: -0
      objectReference: {fileID: 0}
    - target: {fileID: 224763426186284840, guid: 5eefba205a58c8c4a937c97b87c185a3, type: 3}
      propertyPath: m_LocalRotation.z
      value: -0
      objectReference: {fileID: 0}
    - target: {fileID: 224763426186284840, guid: 5eefba205a58c8c4a937c97b87c185a3, type: 3}
      propertyPath: m_AnchoredPosition.x
      value: -320
      objectReference: {fileID: 0}
    - target: {fileID: 224763426186284840, guid: 5eefba205a58c8c4a937c97b87c185a3, type: 3}
      propertyPath: m_AnchoredPosition.y
      value: -107
      objectReference: {fileID: 0}
    - target: {fileID: 224763426186284840, guid: 5eefba205a58c8c4a937c97b87c185a3, type: 3}
      propertyPath: m_LocalEulerAnglesHint.x
      value: 0
      objectReference: {fileID: 0}
    - target: {fileID: 224763426186284840, guid: 5eefba205a58c8c4a937c97b87c185a3, type: 3}
      propertyPath: m_LocalEulerAnglesHint.y
      value: 0
      objectReference: {fileID: 0}
    - target: {fileID: 224763426186284840, guid: 5eefba205a58c8c4a937c97b87c185a3, type: 3}
      propertyPath: m_LocalEulerAnglesHint.z
      value: 0
      objectReference: {fileID: 0}
    m_RemovedComponents: []
  m_SourcePrefab: {fileID: 100100000, guid: 5eefba205a58c8c4a937c97b87c185a3, type: 3}
--- !u!224 &836181502125888998 stripped
RectTransform:
  m_CorrespondingSourceObject: {fileID: 224763426186284840, guid: 5eefba205a58c8c4a937c97b87c185a3, type: 3}
  m_PrefabInstance: {fileID: 613672075850291918}
  m_PrefabAsset: {fileID: 0}
--- !u!1001 &613672076119791011
PrefabInstance:
  m_ObjectHideFlags: 0
  serializedVersion: 2
  m_Modification:
    m_TransformParent: {fileID: 613672074301280202}
    m_Modifications:
    - target: {fileID: 1825481033360878, guid: 5eefba205a58c8c4a937c97b87c185a3, type: 3}
      propertyPath: m_Name
      value: Health
      objectReference: {fileID: 0}
    - target: {fileID: 114418616620393906, guid: 5eefba205a58c8c4a937c97b87c185a3, type: 3}
      propertyPath: m_Sprite
      value: 
      objectReference: {fileID: 21300002, guid: 1c1f5fdffb8c5a944a978e8debb8fdfe, type: 3}
    - target: {fileID: 114769781544105922, guid: 5eefba205a58c8c4a937c97b87c185a3, type: 3}
      propertyPath: TitleFontSize
      value: 40
      objectReference: {fileID: 0}
    - target: {fileID: 114769781544105922, guid: 5eefba205a58c8c4a937c97b87c185a3, type: 3}
      propertyPath: BarBackGroundSprite
      value: 
      objectReference: {fileID: 21300002, guid: 1c1f5fdffb8c5a944a978e8debb8fdfe, type: 3}
    - target: {fileID: 224763426186284840, guid: 5eefba205a58c8c4a937c97b87c185a3, type: 3}
      propertyPath: m_Pivot.x
      value: 0.5
      objectReference: {fileID: 0}
    - target: {fileID: 224763426186284840, guid: 5eefba205a58c8c4a937c97b87c185a3, type: 3}
      propertyPath: m_Pivot.y
      value: 0.5
      objectReference: {fileID: 0}
    - target: {fileID: 224763426186284840, guid: 5eefba205a58c8c4a937c97b87c185a3, type: 3}
      propertyPath: m_RootOrder
      value: 2
      objectReference: {fileID: 0}
    - target: {fileID: 224763426186284840, guid: 5eefba205a58c8c4a937c97b87c185a3, type: 3}
      propertyPath: m_AnchorMax.x
      value: 0.5
      objectReference: {fileID: 0}
    - target: {fileID: 224763426186284840, guid: 5eefba205a58c8c4a937c97b87c185a3, type: 3}
      propertyPath: m_AnchorMax.y
      value: 1
      objectReference: {fileID: 0}
    - target: {fileID: 224763426186284840, guid: 5eefba205a58c8c4a937c97b87c185a3, type: 3}
      propertyPath: m_AnchorMin.x
      value: 0.5
      objectReference: {fileID: 0}
    - target: {fileID: 224763426186284840, guid: 5eefba205a58c8c4a937c97b87c185a3, type: 3}
      propertyPath: m_AnchorMin.y
      value: 1
      objectReference: {fileID: 0}
    - target: {fileID: 224763426186284840, guid: 5eefba205a58c8c4a937c97b87c185a3, type: 3}
      propertyPath: m_SizeDelta.x
      value: 171.76001
      objectReference: {fileID: 0}
    - target: {fileID: 224763426186284840, guid: 5eefba205a58c8c4a937c97b87c185a3, type: 3}
      propertyPath: m_SizeDelta.y
      value: 19.580002
      objectReference: {fileID: 0}
    - target: {fileID: 224763426186284840, guid: 5eefba205a58c8c4a937c97b87c185a3, type: 3}
      propertyPath: m_LocalPosition.x
      value: 0
      objectReference: {fileID: 0}
    - target: {fileID: 224763426186284840, guid: 5eefba205a58c8c4a937c97b87c185a3, type: 3}
      propertyPath: m_LocalPosition.y
      value: 0
      objectReference: {fileID: 0}
    - target: {fileID: 224763426186284840, guid: 5eefba205a58c8c4a937c97b87c185a3, type: 3}
      propertyPath: m_LocalPosition.z
      value: 0
      objectReference: {fileID: 0}
    - target: {fileID: 224763426186284840, guid: 5eefba205a58c8c4a937c97b87c185a3, type: 3}
      propertyPath: m_LocalRotation.w
      value: 1
      objectReference: {fileID: 0}
    - target: {fileID: 224763426186284840, guid: 5eefba205a58c8c4a937c97b87c185a3, type: 3}
      propertyPath: m_LocalRotation.x
      value: -0
      objectReference: {fileID: 0}
    - target: {fileID: 224763426186284840, guid: 5eefba205a58c8c4a937c97b87c185a3, type: 3}
      propertyPath: m_LocalRotation.y
      value: -0
      objectReference: {fileID: 0}
    - target: {fileID: 224763426186284840, guid: 5eefba205a58c8c4a937c97b87c185a3, type: 3}
      propertyPath: m_LocalRotation.z
      value: -0
      objectReference: {fileID: 0}
    - target: {fileID: 224763426186284840, guid: 5eefba205a58c8c4a937c97b87c185a3, type: 3}
      propertyPath: m_AnchoredPosition.x
      value: -322
      objectReference: {fileID: 0}
    - target: {fileID: 224763426186284840, guid: 5eefba205a58c8c4a937c97b87c185a3, type: 3}
      propertyPath: m_AnchoredPosition.y
      value: -57.399994
      objectReference: {fileID: 0}
    - target: {fileID: 224763426186284840, guid: 5eefba205a58c8c4a937c97b87c185a3, type: 3}
      propertyPath: m_LocalEulerAnglesHint.x
      value: 0
      objectReference: {fileID: 0}
    - target: {fileID: 224763426186284840, guid: 5eefba205a58c8c4a937c97b87c185a3, type: 3}
      propertyPath: m_LocalEulerAnglesHint.y
      value: 0
      objectReference: {fileID: 0}
    - target: {fileID: 224763426186284840, guid: 5eefba205a58c8c4a937c97b87c185a3, type: 3}
      propertyPath: m_LocalEulerAnglesHint.z
      value: 0
      objectReference: {fileID: 0}
    m_RemovedComponents: []
  m_SourcePrefab: {fileID: 100100000, guid: 5eefba205a58c8c4a937c97b87c185a3, type: 3}
--- !u!224 &836181501856389771 stripped
RectTransform:
  m_CorrespondingSourceObject: {fileID: 224763426186284840, guid: 5eefba205a58c8c4a937c97b87c185a3, type: 3}
  m_PrefabInstance: {fileID: 613672076119791011}
  m_PrefabAsset: {fileID: 0}
